[
  {
    "label": "Global colors",
    "name": "global_colors",
    "type": "group",
    "children": [
      {
        "label": "Primary",
        "name": "primary",
        "type": "color",
        "visibility": {
          "hidden_subfields": {
            "opacity": true
          }
        },
        "inherited_value": {
          "property_value_paths": {
            "color": "brandSettings.primaryColor"
          }
        },
        "default": {
          "color": "#002554"
        }
      },
      {
        "label": "Secondary",
        "name": "secondary",
        "type": "color",
        "visibility": {
          "hidden_subfields": {
            "opacity": true
          }
        },
        "inherited_value": {
          "property_value_paths": {
            "color": "brandSettings.colors[1]"
          }
        },
        "default": {
          "color": "#009CC1"
        }
      }
    ]
  },
  {
    "label": "Global fonts",
    "name": "global_fonts",
    "type": "group",
    "children": [
      {
        "label": "Primary",
        "name": "primary",
        "type": "font",
        "visibility": {
          "hidden_subfields": {
            "size": true,
            "styles": true
          }
        },
        "inherited_value": {
          "property_value_paths": {
            "color": "theme.global_colors.primary.color"
          }
        },
        "default": {
          "fallback": "sans-serif",
          "font": "Prompt",
          "font_set": "GOOGLE"
        }
      },
      {
        "label": "Secondary",
        "name": "secondary",
        "type": "font",
        "visibility": {
          "hidden_subfields": {
            "size": true,
            "styles": true
          }
        },
        "inherited_value": {
          "property_value_paths": {
            "color": "theme.global_colors.primary.color"
          }
        },
        "default": {
          "fallback": "serif",
          "font": "Muli",
          "font_set": "GOOGLE"
        }
      }
    ]
  },
  {
    "label": "Spacing",
    "name": "spacing",
    "type": "group",
    "children": [
      {
        "label": "Vertical spacing",
        "name": "vertical_spacing",
        "type": "number",
        "display": "slider",
        "max": 500,
        "min": 0,
        "suffix": "px",
        "default": 80
      },
      {
        "label": "Vertical spacing mobile",
        "name": "vertical_spacing_mobile",
        "type": "number",
        "display": "slider",
        "max": 500,
        "min": 0,
        "suffix": "px",
        "default": 40
      },
      {
        "label": "Maximum content width",
        "name": "maximum_content_width",
        "type": "number",
        "display": "slider",
        "max": 2500,
        "min": 900,
        "suffix": "px",
        "default": 1440
      }
    ]
  },
  {
    "label": "Text",
    "name": "text",
    "type": "group",
    "children": [
      {
        "label": "Heading one (H1)",
        "name": "h1",
        "type": "group",
        "children": [
          {
            "label": "Font",
            "name": "font",
            "type": "font",
            "inherited_value": {
              "property_value_paths": {
                "color": "theme.global_fonts.primary.color",
                "fallback": "theme.global_fonts.primary.fallback",
                "font": "theme.global_fonts.primary.font",
                "font_set": "theme.global_fonts.primary.font_set"
              }
            },
            "default": {
              "size": 62,
              "size_unit": "px",
              "styles": {
                "text-decoration": "none"
              },
              "variant": "600"
            }
          },
          {
            "label": "Font Mobile",
            "name": "font_mobile",
            "type": "font",
            "inherited_value": {
              "property_value_paths": {
                "color": "theme.global_fonts.primary.color",
                "fallback": "theme.global_fonts.primary.fallback",
                "font": "theme.global_fonts.primary.font",
                "font_set": "theme.global_fonts.primary.font_set"
              }
            },
            "default": {
              "size": 34,
              "size_unit": "px",
              "styles": {
                "text-decoration": "none"
              },
              "variant": "600"
            }
          },
          {
            "label": "Transform",
            "name": "transform",
            "type": "choice",
            "choices": [
              [ "none", "None" ],
              [ "capitalize", "Capitalize" ],
              [ "uppercase", "Uppercase" ],
              [ "lowercase", "Lowercase" ]
            ],
            "display": "select",
            "default": "none"
          }
        ]
      },
      {
        "label": "Heading two (H2)",
        "name": "h2",
        "type": "group",
        "children": [
          {
            "label": "Font",
            "name": "font",
            "type": "font",
            "inherited_value": {
              "property_value_paths": {
                "color": "theme.global_fonts.primary.color",
                "fallback": "theme.global_fonts.primary.fallback",
                "font": "theme.global_fonts.primary.font",
                "font_set": "theme.global_fonts.primary.font_set"
              }
            },
            "default": {
              "size": 30,
              "size_unit": "px",
              "styles": {
                "text-decoration": "none"
              },
              "variant": "500"
            }
          },
          {
            "label": "Transform",
            "name": "transform",
            "type": "choice",
            "choices": [
              [ "none", "None" ],
              [ "capitalize", "Capitalize" ],
              [ "uppercase", "Uppercase" ],
              [ "lowercase", "Lowercase" ]
            ],
            "display": "select",
            "default": "none"
          }
        ]
      },
      {
        "label": "Heading three (H3)",
        "name": "h3",
        "type": "group",
        "children": [
          {
            "label": "Font",
            "name": "font",
            "type": "font",
            "inherited_value": {
              "property_value_paths": {
                "color": "theme.global_fonts.primary.color",
                "fallback": "theme.global_fonts.primary.fallback",
                "font": "theme.global_fonts.primary.font",
                "font_set": "theme.global_fonts.primary.font_set"
              }
            },
            "default": {
              "size": 30,
              "size_unit": "px",
              "styles": {
                "text-decoration": "none"
              },
              "variant": "500"
            }
          },
          {
            "label": "Transform",
            "name": "transform",
            "type": "choice",
            "choices": [
              [ "none", "None" ],
              [ "capitalize", "Capitalize" ],
              [ "uppercase", "Uppercase" ],
              [ "lowercase", "Lowercase" ]
            ],
            "display": "select",
            "default": "none"
          }
        ]
      },
      {
        "label": "Heading four (H4)",
        "name": "h4",
        "type": "group",
        "children": [
          {
            "label": "Font",
            "name": "font",
            "type": "font",
            "inherited_value": {
              "property_value_paths": {
                "color": "theme.global_fonts.primary.color",
                "fallback": "theme.global_fonts.primary.fallback",
                "font": "theme.global_fonts.primary.font",
                "font_set": "theme.global_fonts.primary.font_set"
              }
            },
            "default": {
              "size": 24,
              "size_unit": "px",
              "styles": {
                "text-decoration": "none"
              },
              "variant": "400"
            }
          },
          {
            "label": "Transform",
            "name": "transform",
            "type": "choice",
            "choices": [
              [ "none", "None" ],
              [ "capitalize", "Capitalize" ],
              [ "uppercase", "Uppercase" ],
              [ "lowercase", "Lowercase" ]
            ],
            "display": "select",
            "default": "none"
          }
        ]
      },
      {
        "label": "Heading five (H5)",
        "name": "h5",
        "type": "group",
        "children": [
          {
            "label": "Font",
            "name": "font",
            "type": "font",
            "inherited_value": {
              "property_value_paths": {
                "fallback": "theme.global_fonts.primary.fallback",
                "font": "theme.global_fonts.primary.font",
                "font_set": "theme.global_fonts.primary.font_set"
              }
            },
            "default": {
              "size": 24,
              "size_unit": "px",
              "styles": {
                "text-decoration": "none"
              },
              "variant": "400"
            }
          },
          {
            "label": "Transform",
            "name": "transform",
            "type": "choice",
            "choices": [
              [ "none", "None" ],
              [ "capitalize", "Capitalize" ],
              [ "uppercase", "Uppercase" ],
              [ "lowercase", "Lowercase" ]
            ],
            "display": "select",
            "default": "none"
          }
        ]
      },
      {
        "label": "Heading six (H6)",
        "name": "h6",
        "type": "group",
        "children": [
          {
            "label": "Font",
            "name": "font",
            "type": "font",
            "inherited_value": {
              "property_value_paths": {
                "color": "theme.global_fonts.primary.color",
                "fallback": "theme.global_fonts.primary.fallback",
                "font": "theme.global_fonts.primary.font",
                "font_set": "theme.global_fonts.primary.font_set"
              }
            },
            "default": {
              "size": 24,
              "size_unit": "px",
              "styles": {
                "text-decoration": "none"
              },
              "variant": "400"
            }
          },
          {
            "label": "Transform",
            "name": "transform",
            "type": "choice",
            "choices": [
              [ "none", "None" ],
              [ "capitalize", "Capitalize" ],
              [ "uppercase", "Uppercase" ],
              [ "lowercase", "Lowercase" ]
            ],
            "display": "select",
            "default": "none"
          }
        ]
      },
      {
        "label": "Body",
        "name": "body_font",
        "type": "group",
        "children": [
          {
            "label": "Font",
            "name": "font",
            "type": "font",
            "inherited_value": {
              "property_value_paths": {
                "color": "theme.global_fonts.primary.color",
                "fallback": "theme.global_fonts.primary.fallback",
                "font": "theme.global_fonts.primary.font",
                "font_set": "theme.global_fonts.primary.font_set"
              }
            },
            "default": {
              "size": 24,
              "size_unit": "px",
              "variant": "300"
            }
          }
        ]
      },
      {
        "label": "Links",
        "name": "links",
        "type": "group",
        "children": [
          {
            "label": "Font",
            "name": "font",
            "type": "font",
            "inherited_value": {
              "property_value_paths": {
                "color": "theme.global_colors.secondary.color",
                "fallback": "theme.global_fonts.primary.fallback",
                "font": "theme.global_fonts.primary.font",
                "font_set": "theme.global_fonts.primary.font_set"
              }
            },
            "default": {
              "size": 24,
              "size_unit": "px",
              "variant": "300",
              "styles": {
                "text-decoration": "none"
              }
              
            }
          }
        ]
      }
    ]
  },
  {
    "label": "Buttons",
    "name": "buttons",
    "type": "group",
    "children": [
      {
        "label": "Text",
        "name": "text",
        "type": "group",
        "children": [
          {
            "label": "Font",
            "name": "font",
            "type": "font",
            "inherited_value": {
              "property_value_paths": {
                "fallback": "theme.global_fonts.primary.fallback",
                "font": "theme.global_fonts.primary.font",
                "font_set": "theme.global_fonts.primary.font_set"
              }
            },
            "default": {
              "color": "#FFFFFF",
              "size": 25,
              "size_unit": "px"
            }
          },
          {
            "label": "Transform",
            "name": "transform",
            "type": "choice",
            "choices": [
              [ "none", "None" ],
              [ "capitalize", "Capitalize" ],
              [ "uppercase", "Uppercase" ],
              [ "lowercase", "Lowercase" ]
            ],
            "display": "select",
            "default": "none"
          }
        ]
      },
      {
        "label": "Background",
        "name": "background",
        "type": "group",
        "children": [
          {
            "label": "Color",
            "name": "color",
            "type": "color",
            "inherited_value": {
              "property_value_paths": {
                "color": "theme.global_colors.primary.color"
              }
            },
            "default": {
              "opacity": 100
            }
          }
        ]
      },
      {
        "label": "Border",
        "name": "border",
        "type": "group",
        "children": [
          {
            "label" : "Border",
            "name" : "border",
            "type" : "border",
            "inherited_value": {
              "property_value_paths": {
                "top.color": "theme.buttons.background.color.color",
                "right.color": "theme.buttons.background.color.color",
                "bottom.color": "theme.buttons.background.color.color",
                "left.color": "theme.buttons.background.color.color"
              }
            },
            "default" : {
              "top": {
                "width": {
                  "value": 0,
                  "units": "px"
                },
                "opacity": 0,
                "style": "solid",
                "color": "#002554"
              },
              "right": {
                "width": {
                  "value": 0,
                  "units": "px"
                },
                "opacity": 0,
                "style": "solid",
                "color": "#002554"
              },
              "bottom": {
                "width": {
                  "value": 0,
                  "units": "px"
                },
                "opacity": 0,
                "style": "solid",
                "color": "#002554"
              },
              "left": {
                "width": {
                  "value": 0,
                  "units": "px"
                },
                "opacity": 0,
                "style": "solid",
                "color": "#002554"
              }
            }
          }
        ]
      },
      {
        "label": "Corner",
        "name": "corner",
        "type": "group",
        "children": [
          {
            "label": "Radius",
            "name": "radius",
            "type": "number",
            "display": "text",
            "max": 100,
            "step": 1,
            "suffix": "px",
            "default": 2
          }
        ]
      },
      {
        "label": "Spacing",
        "name": "spacing",
        "type": "group",
        "children": [
          {
            "label": "Spacing",
            "name": "spacing",
            "type": "spacing",
            "visibility": {
              "hidden_subfields": {
                "margin": true
              }
            },
            "default": {
              "padding": {
                "top": {
                  "value": 0.7,
                  "units": "rem"
                },
                "right": {
                  "value": 2.8,
                  "units": "rem"
                },
                "bottom": {
                  "value": 0.7,
                  "units": "rem"
                },
                "left": {
                  "value": 2.8,
                  "units": "rem"
                }
              }
            }
          }
        ]
      }
    ]
  },
  {
    "label": "Forms",
    "name": "forms",
    "type": "group",
    "children": [
      {
        "label": "Title",
        "name": "title",
        "type": "group",
        "children": [
          {
            "label": "Text",
            "name": "text",
            "type": "group",
            "children": [
              {
                "label": "Color",
                "name": "color",
                "type": "color",
                "visibility": {
                  "hidden_subfields": {
                    "opacity": true
                  }
                },
                "inherited_value": {
                  "default_value_path": "theme.global_colors.secondary"
                }
              }
            ]
          }
        ]
      },
      {
        "label": "Labels",
        "name": "labels",
        "type": "group",
        "children": [
          {
            "label": "Text",
            "name": "text",
            "type": "group",
            "children": [
              {
                "label": "Color",
                "name": "color",
                "type": "color",
                "visibility": {
                  "hidden_subfields": {
                    "opacity": true
                  }
                },
                "inherited_value": {
                  "property_value_paths": {
                    "color": "theme.global_fonts.primary.color"
                  }
                }
              }
            ]
          }
        ]
      },
      {
        "label": "Help text",
        "name": "help_text",
        "type": "group",
        "children": [
          {
            "label": "Text",
            "name": "text",
            "type": "group",
            "children": [
              {
                "label": "Color",
                "name": "color",
                "type": "color",
                "visibility": {
                  "hidden_subfields": {
                    "opacity": true
                  }
                },
                "inherited_value": {
                  "property_value_paths": {
                    "color": "theme.global_fonts.primary.color"
                  }
                }
              }
            ]
          }
        ]
      },
      {
        "label": "Fields",
        "name": "fields",
        "type": "group",
        "children": [
          {
            "label": "Text",
            "name": "text",
            "type": "group",
            "children": [
              {
                "label": "Color",
                "name": "color",
                "type": "color",
                "visibility": {
                  "hidden_subfields": {
                    "opacity": true
                  }
                },
                "inherited_value": {
                  "property_value_paths": {
                    "color": "theme.global_fonts.primary.color"
                  }
                }
              }
            ]
          },
          {
            "label": "Background",
            "name": "background",
            "type": "group",
            "children": [
              {
                "label": "Color",
                "name": "color",
                "type": "color",
                "default": {
                  "color": "#FFFFFF",
                  "opacity": 0
                }
              }
            ]
          },
          {
            "label": "Border",
            "name": "border",
            "type": "group",
            "children": [
              {
                "label" : "Border",
                "name" : "border",
                "type" : "border",
                "default" : {
                  "top": {
                    "width": {
                      "value": 1,
                      "units": "px"
                    },
                    "opacity": 100,
                    "style": "solid",
                    "color": "#002554"
                  },
                  "right": {
                    "width": {
                      "value": 1,
                      "units": "px"
                    },
                    "opacity": 100,
                    "style": "solid",
                    "color": "#002554"
                  },
                  "bottom": {
                    "width": {
                      "value": 1,
                      "units": "px"
                    },
                    "opacity": 100,
                    "style": "solid",
                    "color": "#002554"
                  },
                  "left": {
                    "width": {
                      "value": 1,
                      "units": "px"
                    },
                    "opacity": 100,
                    "style": "solid",
                    "color": "#002554"
                  }
                }
              }
            ]
          },
          {
            "label": "Corner",
            "name": "corner",
            "type": "group",
            "children": [
              {
                "label": "Radius",
                "name": "radius",
                "type": "number",
                "display": "text",
                "max": 100,
                "step": 1,
                "suffix": "px",
                "default": 2
              }
            ]
          }
        ]
      }
    ]
  },
  {
    "label": "Tables",
    "name": "tables",
    "type": "group",
    "children": [
      {
        "label": "Header",
        "name": "header",
        "type": "group",
        "children": [
          {
            "label": "Text",
            "name": "text",
            "type": "group",
            "children": [
              {
                "label": "Color",
                "name": "color",
                "type": "color",
                "visibility": {
                  "hidden_subfields": {
                    "opacity": true
                  }
                },
                "default": {
                  "color": "#FFFFFF"
                }
              }
            ]
          },
          {
            "label": "Background",
            "name": "background",
            "type": "group",
            "children": [
              {
                "label": "Color",
                "name": "color",
                "type": "color",
                "inherited_value": {
                  "property_value_paths": {
                    "color": "theme.global_colors.primary.color"
                  }
                },
                "default": {
                  "opacity": 100
                }
              }
            ]
          }
        ]
      },
      {
        "label": "Body",
        "name": "table_body",
        "type": "group",
        "children": [
          {
            "label": "Text",
            "name": "text",
            "type": "group",
            "children": [
              {
                "label": "Color",
                "name": "color",
                "type": "color",
                "visibility": {
                  "hidden_subfields": {
                    "opacity": true
                  }
                },
                "inherited_value": {
                  "property_value_paths": {
                    "color": "theme.global_fonts.primary.color"
                  }
                }
              }
            ]
          },
          {
            "label": "Background",
            "name": "background",
            "type": "group",
            "children": [
              {
                "label": "Color",
                "name": "color",
                "type": "color",
                "default": {
                  "color": "#FFFFFF",
                  "opacity": 100
                }
              }
            ]
          }
        ]
      },
      {
        "label": "Footer",
        "name": "footer",
        "type": "group",
        "children": [
          {
            "label": "Text",
            "name": "text",
            "type": "group",
            "children": [
              {
                "label": "Color",
                "name": "color",
                "type": "color",
                "visibility": {
                  "hidden_subfields": {
                    "opacity": true
                  }
                },
                "inherited_value": {
                  "property_value_paths": {
                    "color": "theme.global_fonts.primary.color"
                  }
                }
              }
            ]
          },
          {
            "label": "Background",
            "name": "background",
            "type": "group",
            "children": [
              {
                "label": "Color",
                "name": "color",
                "type": "color",
                "default": {
                  "color": "#FFFFFF",
                  "opacity": 100
                }
              }
            ]
          }
        ]
      },
      {
        "label": "Cells",
        "name": "cells",
        "type": "group",
        "children": [
          {
            "label": "Spacing",
            "name": "spacing",
            "type": "group",
            "children": [
              {
                "label": "Spacing",
                "name": "spacing",
                "type": "spacing",
                "visibility": {
                  "hidden_subfields": {
                    "margin": true
                  }
                },
                "default": {
                  "padding": {
                    "top": {
                      "value": 18,
                      "units": "px"
                    },
                    "right": {
                      "value": 18,
                      "units": "px"
                    },
                    "bottom": {
                      "value": 18,
                      "units": "px"
                    },
                    "left": {
                      "value": 18,
                      "units": "px"
                    }
                  }
                }
              }
            ]
          },
          {
            "label": "Border",
            "name": "border",
            "type": "group",
            "children": [
              {
                "label" : "Border",
                "name" : "border",
                "type" : "border",
                "inherited_value": {
                  "property_value_paths": {
                    "top.color": "theme.global_fonts.primary.color",
                    "right.color": "theme.global_fonts.primary.color",
                    "bottom.color": "theme.global_fonts.primary.color",
                    "left.color": "theme.global_fonts.primary.color"
                  }
                },
                "default" : {
                  "top": {
                    "width": {
                      "value": 1,
                      "units": "px"
                    },
                    "opacity": 100,
                    "style": "solid",
                    "color": "#494A52"
                  },
                  "right": {
                    "width": {
                      "value": 1,
                      "units": "px"
                    },
                    "opacity": 100,
                    "style": "solid",
                    "color": "#494A52"
                  },
                  "bottom": {
                    "width": {
                      "value": 1,
                      "units": "px"
                    },
                    "opacity": 100,
                    "style": "solid",
                    "color": "#494A52"
                  },
                  "left": {
                    "width": {
                      "value": 1,
                      "units": "px"
                    },
                    "opacity": 100,
                    "style": "solid",
                    "color": "#494A52"
                  }
                }
              }
            ]
          }
        ]
      }
    ]
  },
  {
    "label": "Website header",
    "name": "header",
    "type": "group",
    "children": [
      {
        "name" : "full_width",
        "label" : "Full width",
        "required" : true,
        "locked" : false,
        "multiple":"false",
        "display" : "select",
        "choices" : [ [ "true", "true" ], [ "false", "false" ] ],
        "type" : "choice",
        "default" : "true"
      },
      {
        "label": "Size",
        "name": "width",
        "type": "group",
        "children": [
          {
            "label": "Maximum content width",
            "name": "maximum_content_width",
            "type": "number",
            "display": "slider",
            "max": 1860,
            "min": 1240,
            "suffix": "px",
            "default": 1460,
            "inline_help_text" : "Only if not full width mode"
          },
          {
            "label": "Height",
            "name": "height",
            "type": "number",
            "display": "slider",
            "max": 120,
            "min": 60,
            "suffix": "px",
            "default": 80
          }
        ]
      },
      {
        "label": "Background",
        "name": "background",
        "type": "group",
        "children": [
          {
            "label": "Gradient Color 1",
            "name": "color_1",
            "type": "color",
            "default": {
              "color": "#002554",
              "opacity": 100
            }
          },
          {
            "label": "Gradient Color 2",
            "name": "color_2",
            "type": "color",
            "default": {
              "color": "#00A0AF",
              "opacity": 100
            }
          },
          {
            "label": "Gradient Radius",
            "name": "color_radius",
            "type": "number",
            "display" : "slider",
            "min" : 0,
            "max" : 360,
            "step" : 2,
            "suffix": " deg",
            "default": 92
          }
        ]
      }
    ]
  },
  {
    "label": "Website footer",
    "name": "footer",
    "type": "group",
    "children": [
      {
        "label": "Background",
        "name": "background",
        "type": "group",
        "children": [
          {
            "label": "Gradient Color 1",
            "name": "color_1",
            "type": "color",
            "default": {
              "color": "#002554",
              "opacity": 100
            }
          },
          {
            "label": "Gradient Color 2",
            "name": "color_2",
            "type": "color",
            "default": {
              "color": "#000711",
              "opacity": 100
            }
          },
          {
            "label": "Gradient Radius",
            "name": "color_radius",
            "type": "number",
            "display" : "slider",
            "min" : 0,
            "max" : 360,
            "step" : 2,
            "suffix": " deg",
            "default": 254
          }
        ]
      },
      {
        "label": "Size",
        "name": "width",
        "type": "group",
        "children": [
          {
            "label": "Maximum content width",
            "name": "maximum_content_width",
            "type": "number",
            "display": "slider",
            "max": 1860,
            "min": 1240,
            "suffix": "px",
            "default": 1460
          }
        ]
      },
      {
        "label": "Title",
        "name": "title",
        "type": "group",
        "children": [
          {
            "label": "Color",
            "name": "color",
            "type": "color",
            "visibility": {
              "hidden_subfields": {
                "opacity": true
              }
            },
            "default":{
              "color" : "#8C784B"
            }
          }
        ]
      },
      {
        "label": "Link",
        "name": "link",
        "type": "group",
        "children": [
          {
            "label": "Color",
            "name": "color",
            "type": "color",
            "visibility": {
              "hidden_subfields": {
                "opacity": true
              }
            },
            "default":{
              "color" : "#617B9B"
            }
          },{
            "label": "Hover Color",
            "name": "hover_color",
            "type": "color",
            "visibility": {
              "hidden_subfields": {
                "opacity": true
              }
            },
            "default":{
              "color" : "#009cc1"
            }
          }
        ]
      },
      {
        "label": "Text",
        "name": "text",
        "type": "group",
        "children": [
          {
            "label": "Color",
            "name": "color",
            "type": "color",
            "visibility": {
              "hidden_subfields": {
                "opacity": true
              }
            },
            "default":{
              "color" : "#617B9B"
            }
          }
        ]
      }
    ]
  }
]
