{
  "global" : false,
  "icon" : "fontawesome-5.14.0:Comment%20Dots",
  "host_template_types" : [ "PAGE" ],
  "module_id" : 57258579930,
  "css_assets" : [ {
    "autoload" : true,
    "path" : "../../css/tools/_splide-core.min.css",
    "name" : "_splide-core.min.css"
  } ],
  "label" : "Carousel testimonial",
  "is_available_for_new_content" : true
}