[ {
  "id" : "870b79d8-9404-df94-0c8e-03ca98901260",
  "name" : "style",
  "display_width" : null,
  "label" : "Style",
  "required" : false,
  "locked" : false,
  "children" : [ {
    "id" : "0bd370b2-02dc-dc09-2614-e2dad6e637ad",
    "name" : "font_field",
    "display_width" : null,
    "label" : "Police",
    "required" : false,
    "locked" : false,
    "load_external_fonts" : true,
    "type" : "font",
    "default" : {
      "color" : "#473763",
      "size" : 24,
      "styles" : { },
      "variant" : "300",
      "font" : "Prompt",
      "fallback" : "sans-serif",
      "font_set" : "GOOGLE"
    }
  }, {
    "id" : "02e97bcc-0632-e4e5-d903-214e0f0652c0",
    "name" : "icon_top_position",
    "display_width" : null,
    "label" : "Icon top position",
    "required" : false,
    "locked" : false,
    "display" : "text",
    "min" : 0,
    "max" : 20,
    "step" : 1,
    "suffix" : "px",
    "type" : "number",
    "default" : 5
  } ],
  "tab" : "STYLE",
  "expanded" : false,
  "type" : "group",
  "default" : {
    "font_field" : {
      "color" : "#473763",
      "size" : 24,
      "styles" : { },
      "variant" : "300",
      "font" : "Prompt",
      "fallback" : "sans-serif",
      "font_set" : "GOOGLE"
    },
    "icon_top_position" : 5
  }
}, {
  "id" : "e6936c87-f59e-647a-cb83-bffb4e4985a8",
  "name" : "text",
  "display_width" : null,
  "label" : "Text",
  "required" : false,
  "locked" : false,
  "occurrence" : {
    "min" : 1,
    "max" : 50,
    "sorting_label_field" : null,
    "default" : 2
  },
  "validation_regex" : "",
  "allow_new_line" : false,
  "show_emoji_picker" : false,
  "type" : "text",
  "default" : [ "Mantra chanting is a simple but <b>powerful form of meditation</b> that awakens a deep and lasting joy. ", "Mantra chanting is a simple but <b>powerful form of meditation</b> that awakens a deep and lasting joy. " ]
} ]